{"data":[{"id":"cmlb632je01lyv76wfeui118p","externalId":"PWR017","nameEn":"1.5 Rep Squat","nameAr":"1.5 Rep Squat","descriptionEn":"","descriptionAr":"","category":"STRENGTH","primaryMuscle":"QUADRICEPS","secondaryMuscles":["GLUTES","HAMSTRINGS"],"equipment":["BARBELL"],"difficulty":"INTERMEDIATE","thumbnailUrl":null,"videoUrl":null,"instructionsEn":[],"instructionsAr":[],"tipsEn":[],"tipsAr":[],"isTimeBased":false,"defaultSets":3,"defaultReps":10,"defaultDuration":null,"defaultRest":60,"tags":[],"createdAt":"2026-02-06T17:36:27.750Z","updatedAt":"2026-02-06T17:36:27.750Z"},{"id":"cml6ntbjr00fuv72ckg41j9a9","externalId":"QD018","nameEn":"1¼ Squat","nameAr":"1¼ Squat (AR)","descriptionEn":"A legs exercise focusing on the Quads.","descriptionAr":"تمرين legs يركز على Quads.","category":"STRENGTH","primaryMuscle":"QUADRICEPS","secondaryMuscles":["GLUTES"],"equipment":["BARBELL"],"difficulty":"ADVANCED","thumbnailUrl":null,"videoUrl":null,"instructionsEn":["Step 1: Assume starting position.","Step 2: Perform the movement.","Step 3: Return to start."],"instructionsAr":["الخطوة ١: اتخذ وضعية البداية.","الخطوة ٢: قم بأداء الحركة.","الخطوة ٣: عد إلى وضعية البداية."],"tipsEn":[],"tipsAr":[],"isTimeBased":false,"defaultSets":3,"defaultReps":12,"defaultDuration":null,"defaultRest":60,"tags":["legs","barbell"],"createdAt":"2026-02-03T13:53:55.383Z","updatedAt":"2026-02-06T17:34:28.731Z"}],"meta":{"total":190,"page":1,"pageSize":2,"totalPages":95},"exercises":[{"id":"cmlb632je01lyv76wfeui118p","externalId":"PWR017","nameEn":"1.5 Rep Squat","nameAr":"1.5 Rep Squat","descriptionEn":"","descriptionAr":"","category":"STRENGTH","primaryMuscle":"QUADRICEPS","secondaryMuscles":["GLUTES","HAMSTRINGS"],"equipment":["BARBELL"],"difficulty":"INTERMEDIATE","thumbnailUrl":null,"videoUrl":null,"instructionsEn":[],"instructionsAr":[],"tipsEn":[],"tipsAr":[],"isTimeBased":false,"defaultSets":3,"defaultReps":10,"defaultDuration":null,"defaultRest":60,"tags":[],"createdAt":"2026-02-06T17:36:27.750Z","updatedAt":"2026-02-06T17:36:27.750Z"},{"id":"cml6ntbjr00fuv72ckg41j9a9","externalId":"QD018","nameEn":"1¼ Squat","nameAr":"1¼ Squat (AR)","descriptionEn":"A legs exercise focusing on the Quads.","descriptionAr":"تمرين legs يركز على Quads.","category":"STRENGTH","primaryMuscle":"QUADRICEPS","secondaryMuscles":["GLUTES"],"equipment":["BARBELL"],"difficulty":"ADVANCED","thumbnailUrl":null,"videoUrl":null,"instructionsEn":["Step 1: Assume starting position.","Step 2: Perform the movement.","Step 3: Return to start."],"instructionsAr":["الخطوة ١: اتخذ وضعية البداية.","الخطوة ٢: قم بأداء الحركة.","الخطوة ٣: عد إلى وضعية البداية."],"tipsEn":[],"tipsAr":[],"isTimeBased":false,"defaultSets":3,"defaultReps":12,"defaultDuration":null,"defaultRest":60,"tags":["legs","barbell"],"createdAt":"2026-02-03T13:53:55.383Z","updatedAt":"2026-02-06T17:34:28.731Z"}],"total":190,"page":1,"pageSize":2,"totalPages":95}